{
  "1": {
    "id": "1",
    "sport": "1",
    "tr": "İngiltere",
    "en": "England",
    "de": "England",
    "ru": "Англия",
    "aa": "إنجلترا",
    "sort": "4",
    "last_update": "2017-11-01 23:00:22",
    "total": "63"
  },
  "3": {
    "id": "3",
    "sport": "5",
    "tr": "ATP",
    "en": "ATP",
    "de": "ATP",
    "ru": "АТП",
    "aa": "رابطة محترفي التنس",
    "sort": "999",
    "last_update": "2017-11-02 00:30:16",
    "total": "9"
  },
  "4": {
    "id": "4",
    "sport": "1",
    "tr": "Uluslararası",
    "en": "International",
    "de": "International",
    "ru": "",
    "aa": "",
    "sort": "2",
    "last_update": "2017-10-24 22:30:22",
    "total": "0"
  },
  "5": {
    "id": "5",
    "sport": "1",
    "tr": "Norveç",
    "en": "Norway",
    "de": "Norwegen",
    "ru": "Норвегия",
    "aa": "النرويج",
    "sort": "25",
    "last_update": "2017-11-01 16:30:10",
    "total": "17"
  },
  "6": {
    "id": "6",
    "sport": "5",
    "tr": "WTA",
    "en": "WTA",
    "de": "WTA",
    "ru": "ВТА",
    "aa": "إتحاد التنس النسائي",
    "sort": "999",
    "last_update": "2017-11-01 23:30:26",
    "total": "5"
  },
  "7": {
    "id": "7",
    "sport": "1",
    "tr": "Fransa",
    "en": "France",
    "de": "Frankreich",
    "ru": "Франция",
    "aa": "فرنسا",
    "sort": "8",
    "last_update": "2017-10-30 21:00:18",
    "total": "28"
  },
  "8": {
    "id": "8",
    "sport": "1",
    "tr": "Danimarka",
    "en": "Denmark",
    "de": "Dänemark",
    "ru": "Дания",
    "aa": "الدانمارك",
    "sort": "24",
    "last_update": "2017-11-01 20:00:16",
    "total": "19"
  },
  "9": {
    "id": "9",
    "sport": "1",
    "tr": "İsveç",
    "en": "Sweden",
    "de": "Schweden",
    "ru": "Швеция",
    "aa": "السويد",
    "sort": "20",
    "last_update": "2017-10-30 21:00:18",
    "total": "16"
  },
  "11": {
    "id": "11",
    "sport": "1",
    "tr": "Macaristan",
    "en": "Hungary",
    "de": "Ungarn",
    "ru": "Венгрия",
    "aa": "المجر",
    "sort": "40",
    "last_update": "2017-10-31 17:08:04",
    "total": "6"
  },
  "12": {
    "id": "12",
    "sport": "1",
    "tr": "Meksika",
    "en": "Mexico",
    "de": "Mexiko",
    "ru": "Мексика",
    "aa": "المكسيك",
    "sort": "39",
    "last_update": "2017-11-01 04:00:06",
    "total": "12"
  },
  "13": {
    "id": "13",
    "sport": "1",
    "tr": "Brezilya",
    "en": "Brazil",
    "de": "Brasilien",
    "ru": "Бразилия",
    "aa": "البرازيل",
    "sort": "13",
    "last_update": "2017-11-01 02:30:06",
    "total": "18"
  },
  "14": {
    "id": "14",
    "sport": "1",
    "tr": "Hırvatistan",
    "en": "Croatia",
    "de": "Kroatien",
    "ru": "Хорватия",
    "aa": "كرواتيا",
    "sort": "16",
    "last_update": "2017-10-31 17:30:23",
    "total": "11"
  },
  "15": {
    "id": "15",
    "sport": "2",
    "tr": "ABD",
    "en": "USA",
    "de": "USA",
    "ru": "США",
    "aa": "الولايات المتحدة",
    "sort": "1",
    "last_update": "2017-11-01 17:00:10",
    "total": "12"
  },
  "16": {
    "id": "16",
    "sport": "3",
    "tr": "ABD",
    "en": "USA",
    "de": "USA",
    "ru": "США",
    "aa": "الولايات المتحدة",
    "sort": "999",
    "last_update": "2017-11-01 07:30:16",
    "total": "1"
  },
  "17": {
    "id": "17",
    "sport": "1",
    "tr": "Avusturya",
    "en": "Austria",
    "de": "Österreich",
    "ru": "Австрия",
    "aa": "النمسا",
    "sort": "23",
    "last_update": "2017-11-01 00:30:27",
    "total": "10"
  },
  "18": {
    "id": "18",
    "sport": "1",
    "tr": "Çek Cumhuriyeti",
    "en": "Czech Republic",
    "de": "Tschechische Republik",
    "ru": "Чехия",
    "aa": "تشيك",
    "sort": "41",
    "last_update": "2017-11-01 18:30:14",
    "total": "16"
  },
  "19": {
    "id": "19",
    "sport": "1",
    "tr": "Finlandiya",
    "en": "Finland",
    "de": "Finnland",
    "ru": "Финляндия",
    "aa": "فنلندا",
    "sort": "42",
    "last_update": "2017-11-01 19:30:15",
    "total": "0"
  },
  "21": {
    "id": "21",
    "sport": "1",
    "tr": "Rusya",
    "en": "Russia",
    "de": "Russland",
    "ru": "Россия",
    "aa": "روسيا",
    "sort": "11",
    "last_update": "2017-11-01 11:30:05",
    "total": "23"
  },
  "22": {
    "id": "22",
    "sport": "1",
    "tr": "İskoçya",
    "en": "Scotland",
    "de": "Schottland",
    "ru": "Шотландия",
    "aa": "إسكتلندا",
    "sort": "31",
    "last_update": "2017-11-01 22:30:21",
    "total": "21"
  },
  "23": {
    "id": "23",
    "sport": "1",
    "tr": "Slovakya",
    "en": "Slovakia",
    "de": "Slowakei",
    "ru": "Словакия",
    "aa": "سلوفاكيا",
    "sort": "30",
    "last_update": "2017-11-01 15:00:10",
    "total": "14"
  },
  "25": {
    "id": "25",
    "sport": "1",
    "tr": "İsviçre",
    "en": "Switzerland",
    "de": "Schweiz",
    "ru": "Швейцария",
    "aa": "سويسرا",
    "sort": "28",
    "last_update": "2017-10-31 18:30:18",
    "total": "10"
  },
  "26": {
    "id": "26",
    "sport": "1",
    "tr": "ABD",
    "en": "USA",
    "de": "USA",
    "ru": "США",
    "aa": "الولايات المتحدة",
    "sort": "19",
    "last_update": "2017-11-01 03:00:07",
    "total": "4"
  },
  "27": {
    "id": "27",
    "sport": "10",
    "tr": "Uluslararası",
    "en": "International",
    "de": "International",
    "ru": "International",
    "aa": "International",
    "sort": "999",
    "last_update": "2017-10-31 22:00:15",
    "total": "8"
  },
  "31": {
    "id": "31",
    "sport": "1",
    "tr": "İtalya",
    "en": "Italy",
    "de": "Italien",
    "ru": "Италия",
    "aa": "إيطاليا",
    "sort": "7",
    "last_update": "2017-11-01 17:00:10",
    "total": "47"
  },
  "32": {
    "id": "32",
    "sport": "1",
    "tr": "İspanya",
    "en": "Spain",
    "de": "Spanien",
    "ru": "Испания",
    "aa": "إسبانيا",
    "sort": "5",
    "last_update": "2017-11-01 21:00:26",
    "total": "21"
  },
  "34": {
    "id": "34",
    "sport": "1",
    "tr": "Avustralya",
    "en": "Australia",
    "de": "Australien",
    "ru": "Австралия",
    "aa": "أستراليا",
    "sort": "18",
    "last_update": "2017-10-30 21:51:03",
    "total": "5"
  },
  "35": {
    "id": "35",
    "sport": "1",
    "tr": "Hollanda",
    "en": "Netherlands",
    "de": "Niederlande",
    "ru": "Голландия (Нидерланды)",
    "aa": "هولندا",
    "sort": "9",
    "last_update": "2017-10-31 00:00:16",
    "total": "19"
  },
  "37": {
    "id": "37",
    "sport": "4",
    "tr": "ABD",
    "en": "USA",
    "de": "USA",
    "ru": "США",
    "aa": "الولايات المتحدة",
    "sort": "999",
    "last_update": "2017-11-01 08:30:05",
    "total": "25"
  },
  "44": {
    "id": "44",
    "sport": "1",
    "tr": "Portekiz",
    "en": "Portugal",
    "de": "Portugal",
    "ru": "Португалия",
    "aa": "البرتغال",
    "sort": "10",
    "last_update": "2017-11-01 18:00:15",
    "total": "19"
  },
  "46": {
    "id": "46",
    "sport": "1",
    "tr": "Türkiye",
    "en": "Turkey",
    "de": "Türkei",
    "ru": "Турция",
    "aa": "تركيا",
    "sort": "3",
    "last_update": "2017-10-31 18:30:18",
    "total": "18"
  },
  "47": {
    "id": "47",
    "sport": "1",
    "tr": "Polonya",
    "en": "Poland",
    "de": "Polen",
    "ru": "Польша",
    "aa": "بولندا",
    "sort": "32",
    "last_update": "2017-10-30 20:00:37",
    "total": "26"
  },
  "48": {
    "id": "48",
    "sport": "1",
    "tr": "Arjantin",
    "en": "Argentina",
    "de": "Argentinien",
    "ru": "Аргентина",
    "aa": "الأرجنتين",
    "sort": "14",
    "last_update": "2017-11-01 19:00:14",
    "total": "26"
  },
  "49": {
    "id": "49",
    "sport": "1",
    "tr": "Şili",
    "en": "Chile",
    "de": "Chile",
    "ru": "Чили",
    "aa": "تشيلي",
    "sort": "44",
    "last_update": "2017-11-01 15:30:11",
    "total": "11"
  },
  "51": {
    "id": "51",
    "sport": "1",
    "tr": "İrlanda",
    "en": "Ireland",
    "de": "Irland",
    "ru": "Ирландия",
    "aa": "أيرلندا",
    "sort": "43",
    "last_update": "2017-10-30 21:17:03",
    "total": "1"
  },
  "52": {
    "id": "52",
    "sport": "1",
    "tr": "Japonya",
    "en": "Japan",
    "de": "Japan",
    "ru": "Япония",
    "aa": "اليابان",
    "sort": "23",
    "last_update": "2017-10-30 19:33:03",
    "total": "13"
  },
  "53": {
    "id": "53",
    "sport": "6",
    "tr": "Almanya",
    "en": "Germany",
    "de": "Deutschland",
    "ru": "Германия",
    "aa": "ألمانيا",
    "sort": "999",
    "last_update": "2017-11-01 21:30:35",
    "total": "12"
  },
  "55": {
    "id": "55",
    "sport": "19",
    "tr": "Uluslararası",
    "en": "International",
    "de": "International",
    "ru": "Международный",
    "aa": "دولي",
    "sort": "999",
    "last_update": "2017-11-01 21:00:26",
    "total": "4"
  },
  "66": {
    "id": "66",
    "sport": "1",
    "tr": "İsrail",
    "en": "Israel",
    "de": "Israel",
    "ru": "Израиль",
    "aa": "إسرائيل",
    "sort": "17",
    "last_update": "2017-10-31 16:30:18",
    "total": "6"
  },
  "67": {
    "id": "67",
    "sport": "1",
    "tr": "Yunanistan",
    "en": "Greece",
    "de": "Griechenland",
    "ru": "Греция",
    "aa": "اليونان",
    "sort": "21",
    "last_update": "2017-10-30 20:32:23",
    "total": "8"
  },
  "72": {
    "id": "72",
    "sport": "5",
    "tr": "Challenge",
    "en": "Challenger",
    "de": "Challenger",
    "ru": "Челленджер",
    "aa": "تحدي",
    "sort": "999",
    "last_update": "2017-11-02 01:30:15",
    "total": "37"
  },
  "73": {
    "id": "73",
    "sport": "6",
    "tr": "Uluslararası",
    "en": "International",
    "de": "International",
    "ru": "Международный",
    "aa": "الدولي",
    "sort": "999",
    "last_update": "2017-11-01 20:30:27",
    "total": "19"
  },
  "77": {
    "id": "77",
    "sport": "1",
    "tr": "Romanya",
    "en": "Romania",
    "de": "Rumänien",
    "ru": "Румыния",
    "aa": "رومانيا",
    "sort": "22",
    "last_update": "2017-10-30 19:00:34",
    "total": "7"
  },
  "78": {
    "id": "78",
    "sport": "1",
    "tr": "Bulgaristan",
    "en": "Bulgaria",
    "de": "Bulgarien",
    "ru": "Болгария",
    "aa": "بلغاريا",
    "sort": "45",
    "last_update": "2017-10-30 23:00:19",
    "total": "7"
  },
  "82": {
    "id": "82",
    "sport": "12",
    "tr": "Ragbi Birliği",
    "en": "Rugby Union",
    "de": "Rugby Union",
    "ru": "Союз регбистов",
    "aa": "إتحاد الرجبي",
    "sort": "999",
    "last_update": "2017-10-31 18:30:18",
    "total": "17"
  },
  "83": {
    "id": "83",
    "sport": "12",
    "tr": "Ragbi Ligi",
    "en": "Rugby League",
    "de": "Rugby League",
    "ru": "Регби Лига",
    "aa": "دوري الرجبي",
    "sort": "999",
    "last_update": "2017-10-31 03:56:03",
    "total": "7"
  },
  "86": {
    "id": "86",
    "sport": "1",
    "tr": "Ukrayna",
    "en": "Ukraine",
    "de": "Ukraine",
    "ru": "Украина",
    "aa": "أوكرانيا",
    "sort": "15",
    "last_update": "2017-11-01 14:32:17",
    "total": "7"
  },
  "88": {
    "id": "88",
    "sport": "20",
    "tr": "Uluslararası",
    "en": "International",
    "de": "International",
    "ru": "Международный",
    "aa": "دولي",
    "sort": "999",
    "last_update": "2017-10-31 17:30:23",
    "total": "0"
  },
  "91": {
    "id": "91",
    "sport": "1",
    "tr": "Beyaz Rusya",
    "en": "Belarus",
    "de": "Weißrussland",
    "ru": "Беларусь",
    "aa": "روسيا البيضاء",
    "sort": "46",
    "last_update": "2017-11-01 15:00:10",
    "total": "7"
  },
  "93": {
    "id": "93",
    "sport": "16",
    "tr": "Kanada",
    "en": "Canada",
    "de": "Kanada",
    "ru": "Канада",
    "aa": "كندا",
    "sort": "999",
    "last_update": "2017-11-01 21:00:26",
    "total": "4"
  },
  "103": {
    "id": "103",
    "sport": "2",
    "tr": "Uluslararası",
    "en": "International",
    "de": "International",
    "ru": "Международный",
    "aa": "الدولي",
    "sort": "0",
    "last_update": "2017-11-01 23:30:26",
    "total": "14"
  },
  "105": {
    "id": "105",
    "sport": "21",
    "tr": "Uluslararası",
    "en": "International",
    "de": "International",
    "ru": "International",
    "aa": "International",
    "sort": "999",
    "last_update": "2017-11-01 16:30:10",
    "total": "0"
  },
  "107": {
    "id": "107",
    "sport": "2",
    "tr": "İtalya",
    "en": "Italy",
    "de": "Italien",
    "ru": "",
    "aa": "",
    "sort": "15",
    "last_update": "2017-10-30 15:00:33",
    "total": "8"
  },
  "108": {
    "id": "108",
    "sport": "2",
    "tr": "Yunanistan",
    "en": "Greece",
    "de": "Griechenland",
    "ru": "Греция",
    "aa": "اليونان",
    "sort": "14",
    "last_update": "2017-10-30 20:00:37",
    "total": "0"
  },
  "109": {
    "id": "109",
    "sport": "2",
    "tr": "İspanya",
    "en": "Spain",
    "de": "Spanien",
    "ru": "Испания",
    "aa": "إسبانيا",
    "sort": "3",
    "last_update": "2017-11-01 20:30:27",
    "total": "9"
  },
  "110": {
    "id": "110",
    "sport": "2",
    "tr": "Fransa",
    "en": "France",
    "de": "Frankreich",
    "ru": "Франция",
    "aa": "فرنسا",
    "sort": "8",
    "last_update": "2017-11-01 19:00:14",
    "total": "1"
  },
  "111": {
    "id": "111",
    "sport": "2",
    "tr": "Almanya",
    "en": "Germany",
    "de": "Deutschland",
    "ru": "Германия",
    "aa": "ألمانيا",
    "sort": "5",
    "last_update": "2017-11-02 00:30:16",
    "total": "2"
  },
  "112": {
    "id": "112",
    "sport": "2",
    "tr": "Türkiye",
    "en": "Turkey",
    "de": "Türkei",
    "ru": "Турция",
    "aa": "تركيا",
    "sort": "2",
    "last_update": "2017-10-30 19:00:34",
    "total": "0"
  },
  "113": {
    "id": "113",
    "sport": "2",
    "tr": "Avustralya",
    "en": "Australia",
    "de": "Australien",
    "ru": "Австралия",
    "aa": "أستراليا",
    "sort": "13",
    "last_update": "2017-11-01 07:00:06",
    "total": "10"
  },
  "122": {
    "id": "122",
    "sport": "1",
    "tr": "Almanya Amatör",
    "en": "Germany Amateur",
    "de": "Deutschland Amateure",
    "ru": "Германия (любители)",
    "aa": "المحترفين الألماني",
    "sort": "61",
    "last_update": "2017-11-01 20:00:16",
    "total": "26"
  },
  "130": {
    "id": "130",
    "sport": "1",
    "tr": "Kuzey İrlanda",
    "en": "Northern Ireland",
    "de": "Nordirland",
    "ru": "Северная Ирландия",
    "aa": "أيرلندا الشمالية",
    "sort": "65",
    "last_update": "2017-11-01 14:00:09",
    "total": "6"
  },
  "170": {
    "id": "170",
    "sport": "2",
    "tr": "Avusturya",
    "en": "Austria",
    "de": "Österreich",
    "ru": "Австрия",
    "aa": "النمسا",
    "sort": "16",
    "last_update": "2017-11-01 19:00:14",
    "total": "4"
  },
  "183": {
    "id": "183",
    "sport": "29",
    "tr": "İspanya",
    "en": "Spain",
    "de": "Spanien",
    "ru": "Испания",
    "aa": "إسبانيا",
    "sort": "999",
    "last_update": "2017-11-01 23:00:22",
    "total": "0"
  },
  "185": {
    "id": "185",
    "sport": "29",
    "tr": "İtalya",
    "en": "Italy",
    "de": "Italien",
    "ru": "Италия",
    "aa": "إيطاليا",
    "sort": "999",
    "last_update": "2017-11-01 22:00:33",
    "total": "0"
  },
  "186": {
    "id": "186",
    "sport": "29",
    "tr": "Portekiz",
    "en": "Portugal",
    "de": "Portugal",
    "ru": "Португалия",
    "aa": "البرتغال",
    "sort": "999",
    "last_update": "2017-11-01 19:00:14",
    "total": "0"
  },
  "188": {
    "id": "188",
    "sport": "2",
    "tr": "İsrail",
    "en": "Israel",
    "de": "Israel",
    "ru": "",
    "aa": "",
    "sort": "7",
    "last_update": "2017-10-30 22:00:21",
    "total": "0"
  },
  "202": {
    "id": "202",
    "sport": "29",
    "tr": "Brezilya",
    "en": "Brazil",
    "de": "Brasilien",
    "ru": "Бразилия",
    "aa": "البرازيل",
    "sort": "999",
    "last_update": "2017-10-31 00:00:16",
    "total": "0"
  },
  "252": {
    "id": "252",
    "sport": "1",
    "tr": "İngiltere Amatör",
    "en": "England Amateur",
    "de": "England Amateure",
    "ru": "Англия (любители)",
    "aa": "المحترفين الإنجليزي",
    "sort": "60",
    "last_update": "2017-11-01 23:00:22",
    "total": "44"
  },
  "258": {
    "id": "258",
    "sport": "2",
    "tr": "Letonya",
    "en": "Latvia",
    "de": "Lettland",
    "ru": "Латвия",
    "aa": "لاتفيا",
    "sort": "9",
    "last_update": "2017-11-01 19:30:15",
    "total": "0"
  },
  "259": {
    "id": "259",
    "sport": "31",
    "tr": "Uluslararası",
    "en": "International",
    "de": "International",
    "ru": "Международный",
    "aa": "دولي",
    "sort": "999",
    "last_update": "2017-11-01 23:00:22",
    "total": "20"
  },
  "264": {
    "id": "264",
    "sport": "2",
    "tr": "Arjantin",
    "en": "Argentina",
    "de": "Argentinien",
    "ru": "Аргентина",
    "aa": "الأرجنتين",
    "sort": "999",
    "last_update": "2017-11-01 07:00:06",
    "total": "7"
  },
  "269": {
    "id": "269",
    "sport": "29",
    "tr": "Rusya",
    "en": "Russia",
    "de": "Russland",
    "ru": "Россия",
    "aa": "روسيا",
    "sort": "999",
    "last_update": "2017-11-01 21:00:26",
    "total": "7"
  },
  "274": {
    "id": "274",
    "sport": "1",
    "tr": "Kolombiya",
    "en": "Colombia",
    "de": "Kolumbien",
    "ru": "Колумбия",
    "aa": "كولومبيا",
    "sort": "59",
    "last_update": "2017-11-01 23:30:26",
    "total": "5"
  },
  "280": {
    "id": "280",
    "sport": "1",
    "tr": "Paraguay",
    "en": "Paraguay",
    "de": "Paraguay",
    "ru": "Парагвай",
    "aa": "الباراغواي",
    "sort": "27",
    "last_update": "2017-11-01 03:00:07",
    "total": "6"
  },
  "284": {
    "id": "284",
    "sport": "2",
    "tr": "Polonya",
    "en": "Poland",
    "de": "Polen",
    "ru": "Польша",
    "aa": "بولندا",
    "sort": "999",
    "last_update": "2017-11-02 00:30:16",
    "total": "8"
  },
  "303": {
    "id": "303",
    "sport": "1",
    "tr": "Fas",
    "en": "Morocco",
    "de": "Marokko",
    "ru": "Марокко",
    "aa": "المغرب",
    "sort": "58",
    "last_update": "2017-11-01 20:00:16",
    "total": "1"
  },
  "305": {
    "id": "305",
    "sport": "1",
    "tr": "Mısır",
    "en": "Egypt",
    "de": "Ägypten",
    "ru": "Египет",
    "aa": "مصر",
    "sort": "57",
    "last_update": "2017-10-30 21:30:17",
    "total": "8"
  },
  "312": {
    "id": "312",
    "sport": "2",
    "tr": "İsviçre",
    "en": "Switzerland",
    "de": "Schweiz",
    "ru": "Швейцария",
    "aa": "سويسرا",
    "sort": "999",
    "last_update": "2017-11-01 22:00:33",
    "total": "0"
  },
  "324": {
    "id": "324",
    "sport": "2",
    "tr": "Romanya",
    "en": "Romania",
    "de": "Rumänien",
    "ru": "Румыния",
    "aa": "رومانيا",
    "sort": "999",
    "last_update": "2017-11-01 20:30:27",
    "total": "0"
  },
  "384": {
    "id": "384",
    "sport": "3",
    "tr": "Güney Kore",
    "en": "Republic of Korea",
    "de": "Südkorea",
    "ru": "",
    "aa": "",
    "sort": "999",
    "last_update": "2017-10-30 12:30:22",
    "total": "0"
  },
  "392": {
    "id": "392",
    "sport": "1",
    "tr": "Uluslararası Genç",
    "en": "International Youth",
    "de": "International Jugend",
    "ru": "Международные матчи (молодежные)",
    "aa": "الشباب الدولي",
    "sort": "63",
    "last_update": "2017-11-01 20:00:16",
    "total": "0"
  },
  "393": {
    "id": "393",
    "sport": "1",
    "tr": "Uluslararası Kulüpler",
    "en": "International Clubs",
    "de": "Internationale Klubturniere",
    "ru": "Международные матчи (клубы)",
    "aa": "الأندية الدولية",
    "sort": "1",
    "last_update": "2017-11-02 01:30:15",
    "total": "30"
  },
  "577": {
    "id": "577",
    "sport": "60",
    "tr": "Uluslararası",
    "en": "International",
    "de": "International",
    "ru": "Международный",
    "aa": "دولي",
    "sort": "999",
    "last_update": "2017-11-01 23:00:22",
    "total": "4"
  },
  "785": {
    "id": "785",
    "sport": "5",
    "tr": "ITF Erkekler",
    "en": "ITF Men",
    "de": "ITF Männer",
    "ru": "ITF Мужчины",
    "aa": "إتحاد التنس الدولي الرجال",
    "sort": "999",
    "last_update": "2017-11-02 01:32:20",
    "total": "75"
  },
  "33": {
    "id": "33",
    "sport": "1",
    "tr": "Belçika",
    "en": "Belgium",
    "de": "Belgien",
    "ru": "Бельгия",
    "aa": "بلجيكا",
    "sort": "12",
    "last_update": "2017-11-01 11:00:06",
    "total": "12"
  },
  "30": {
    "id": "30",
    "sport": "1",
    "tr": "Almanya",
    "en": "Germany",
    "de": "Deutschland",
    "ru": "Германия",
    "aa": "ألمانيا",
    "sort": "6",
    "last_update": "2017-10-30 22:30:21",
    "total": "28"
  },
  "43": {
    "id": "43",
    "sport": "16",
    "tr": "ABD",
    "en": "USA",
    "de": "USA",
    "ru": "США",
    "aa": "الولايات المتحدة",
    "sort": "999",
    "last_update": "2017-10-31 05:00:07",
    "total": "13"
  },
  "289": {
    "id": "289",
    "sport": "1",
    "tr": "Kosta Rika",
    "en": "Costa Rica",
    "de": "Costa Rica",
    "ru": "Коста-Рика",
    "aa": "كوستاريكا",
    "sort": "26",
    "last_update": "2017-11-02 00:00:22",
    "total": "4"
  },
  "279": {
    "id": "279",
    "sport": "1",
    "tr": "Moldova",
    "en": "Moldova",
    "de": "Moldawien",
    "ru": "",
    "aa": "",
    "sort": "35",
    "last_update": "2017-10-30 15:00:33",
    "total": "0"
  },
  "56": {
    "id": "56",
    "sport": "4",
    "tr": "Uluslararası",
    "en": "International",
    "de": "International",
    "ru": "Международный",
    "aa": "الدولي",
    "sort": "999",
    "last_update": "2017-11-01 22:30:21",
    "total": "11"
  },
  "102": {
    "id": "102",
    "sport": "1",
    "tr": "Kıbrıs Rum Kesimi",
    "en": "Cyprus",
    "de": "Zypern",
    "ru": "Кипр",
    "aa": "قبرص",
    "sort": "53",
    "last_update": "2017-11-01 17:30:11",
    "total": "7"
  },
  "301": {
    "id": "301",
    "sport": "1",
    "tr": "İran",
    "en": "Iran",
    "de": "Iran",
    "ru": "Иран",
    "aa": "إيران",
    "sort": "50",
    "last_update": "2017-10-31 17:30:23",
    "total": "3"
  },
  "38": {
    "id": "38",
    "sport": "4",
    "tr": "Norveç",
    "en": "Norway",
    "de": "Norwegen",
    "ru": "Норвегия",
    "aa": "النرويج",
    "sort": "999",
    "last_update": "2017-11-01 21:00:26",
    "total": "3"
  },
  "299": {
    "id": "299",
    "sport": "1",
    "tr": "BAE",
    "en": "United Arab Emirates",
    "de": "Vereinigte Arabische Emirate",
    "ru": "Объединенные Арабские Эмираты",
    "aa": "الإمارات العربية المتحدة",
    "sort": "48",
    "last_update": "2017-10-31 04:21:03",
    "total": "6"
  },
  "275": {
    "id": "275",
    "sport": "4",
    "tr": "Beyaz Rusya",
    "en": "Belarus",
    "de": "Weißrussland",
    "ru": "Беларусь",
    "aa": "روسيا البيضاء",
    "sort": "999",
    "last_update": "2017-11-01 18:00:15",
    "total": "6"
  },
  "58": {
    "id": "58",
    "sport": "6",
    "tr": "Norveç",
    "en": "Norway",
    "de": "Norwegen",
    "ru": "Норвегия",
    "aa": "النرويج",
    "sort": "999",
    "last_update": "2017-11-01 22:30:21",
    "total": "0"
  },
  "39": {
    "id": "39",
    "sport": "4",
    "tr": "İsveç",
    "en": "Sweden",
    "de": "Schweden",
    "ru": "Швеция",
    "aa": "السويد",
    "sort": "999",
    "last_update": "2017-11-02 01:00:15",
    "total": "18"
  },
  "101": {
    "id": "101",
    "sport": "4",
    "tr": "Rusya",
    "en": "Russia",
    "de": "Russland",
    "ru": "Россия",
    "aa": "روسيا",
    "sort": "999",
    "last_update": "2017-11-01 22:00:33",
    "total": "41"
  },
  "371": {
    "id": "371",
    "sport": "37",
    "tr": "Uluslar arası",
    "en": "International",
    "de": "Squash",
    "ru": "International",
    "aa": "International",
    "sort": "999",
    "last_update": "2017-11-01 20:00:16",
    "total": "0"
  },
  "134": {
    "id": "134",
    "sport": "1",
    "tr": "Malta",
    "en": "Malta",
    "de": "Malta",
    "ru": "Мальта",
    "aa": "مالطا",
    "sort": "54",
    "last_update": "2017-10-30 22:30:21",
    "total": "0"
  },
  "254": {
    "id": "254",
    "sport": "1",
    "tr": "Türkiye Amatör",
    "en": "Turkey Amateur",
    "de": "Türkei Amateure",
    "ru": "",
    "aa": "",
    "sort": "62",
    "last_update": "2017-10-30 14:30:31",
    "total": "0"
  },
  "42": {
    "id": "42",
    "sport": "4",
    "tr": "Çek Cumhuriyeti",
    "en": "Czech Republic",
    "de": "Tschechische Republik",
    "ru": "Чехия",
    "aa": "تشيك",
    "sort": "999",
    "last_update": "2017-11-01 20:00:16",
    "total": "13"
  },
  "54": {
    "id": "54",
    "sport": "4",
    "tr": "İsviçre",
    "en": "Switzerland",
    "de": "Schweiz",
    "ru": "Швейцария",
    "aa": "سويسرا",
    "sort": "999",
    "last_update": "2017-11-01 22:00:33",
    "total": "9"
  },
  "98": {
    "id": "98",
    "sport": "4",
    "tr": "Slovakya",
    "en": "Slovakia",
    "de": "Slowakei",
    "ru": "Словакия",
    "aa": "سلوفاكيا",
    "sort": "999",
    "last_update": "2017-11-02 00:00:22",
    "total": "6"
  },
  "40": {
    "id": "40",
    "sport": "4",
    "tr": "Finlandiya",
    "en": "Finland",
    "de": "Finnland",
    "ru": "Финляндия",
    "aa": "فنلندا",
    "sort": "999",
    "last_update": "2017-11-01 20:32:39",
    "total": "5"
  },
  "245": {
    "id": "245",
    "sport": "6",
    "tr": "İzlanda",
    "en": "Iceland",
    "de": "Island",
    "ru": "Исландия",
    "aa": "أيسلندا",
    "sort": "999",
    "last_update": "2017-11-01 23:30:26",
    "total": "0"
  },
  "41": {
    "id": "41",
    "sport": "4",
    "tr": "Almanya",
    "en": "Germany",
    "de": "Deutschland",
    "ru": "Германия",
    "aa": "ألمانيا",
    "sort": "999",
    "last_update": "2017-11-01 12:00:05",
    "total": "13"
  },
  "60": {
    "id": "60",
    "sport": "6",
    "tr": "İsveç",
    "en": "Sweden",
    "de": "Schweden",
    "ru": "Швеция",
    "aa": "السويد",
    "sort": "999",
    "last_update": "2017-11-01 21:00:26",
    "total": "4"
  },
  "353": {
    "id": "353",
    "sport": "1",
    "tr": "Katar",
    "en": "Qatar",
    "de": "Katar",
    "ru": "Катар",
    "aa": "قطر",
    "sort": "37",
    "last_update": "2017-10-31 17:30:23",
    "total": "6"
  },
  "176": {
    "id": "176",
    "sport": "4",
    "tr": "Kanada",
    "en": "Canada",
    "de": "Kanada",
    "ru": "Канада",
    "aa": "كندا",
    "sort": "999",
    "last_update": "2017-11-01 17:30:11",
    "total": "11"
  },
  "64": {
    "id": "64",
    "sport": "4",
    "tr": "Danimarka",
    "en": "Denmark",
    "de": "Dänemark",
    "ru": "Дания",
    "aa": "الدانمارك",
    "sort": "999",
    "last_update": "2017-11-01 15:00:10",
    "total": "6"
  },
  "65": {
    "id": "65",
    "sport": "4",
    "tr": "Avusturya",
    "en": "Austria",
    "de": "Österreich",
    "ru": "Австрия",
    "aa": "النمسا",
    "sort": "999",
    "last_update": "2017-11-01 13:00:07",
    "total": "6"
  },
  "115": {
    "id": "115",
    "sport": "4",
    "tr": "Polonya",
    "en": "Poland",
    "de": "Polen",
    "ru": "Польша",
    "aa": "بولندا",
    "sort": "999",
    "last_update": "2017-10-31 21:00:15",
    "total": "0"
  },
  "242": {
    "id": "242",
    "sport": "4",
    "tr": "Fransa",
    "en": "France",
    "de": "Frankreich",
    "ru": "Франция",
    "aa": "فرنسا",
    "sort": "999",
    "last_update": "2017-11-01 15:00:10",
    "total": "6"
  },
  "70": {
    "id": "70",
    "sport": "7",
    "tr": "Finlandiya",
    "en": "Finland",
    "de": "Finnland",
    "ru": "Финляндия",
    "aa": "فنلندا",
    "sort": "999",
    "last_update": "2017-10-30 19:30:32",
    "total": "0"
  },
  "154": {
    "id": "154",
    "sport": "2",
    "tr": "Çek Cumhuriyeti",
    "en": "Czech Republic",
    "de": "Tschechische Republik",
    "ru": "Чехия",
    "aa": "تشيك",
    "sort": "999",
    "last_update": "2017-11-01 20:00:16",
    "total": "0"
  },
  "126": {
    "id": "126",
    "sport": "23",
    "tr": "İtalya",
    "en": "Italy",
    "de": "Italien",
    "ru": "Италия",
    "aa": "إيطاليا",
    "sort": "999",
    "last_update": "2017-11-01 21:30:35",
    "total": "1"
  },
  "149": {
    "id": "149",
    "sport": "2",
    "tr": "Finlandiya",
    "en": "Finland",
    "de": "Finnland",
    "ru": "Финляндия",
    "aa": "فنلندا",
    "sort": "999",
    "last_update": "2017-11-01 19:30:15",
    "total": "0"
  },
  "313": {
    "id": "313",
    "sport": "23",
    "tr": "Polonya",
    "en": "Poland",
    "de": "Polen",
    "ru": "Польша",
    "aa": "بولندا",
    "sort": "999",
    "last_update": "2017-10-31 21:30:17",
    "total": "15"
  },
  "540": {
    "id": "540",
    "sport": "1",
    "tr": "Filistin",
    "en": "Palestine",
    "de": "Palästina",
    "ru": "Палестина",
    "aa": "فلسطين",
    "sort": "55",
    "last_update": "2017-10-31 18:00:21",
    "total": "0"
  },
  "491": {
    "id": "491",
    "sport": "21",
    "tr": "Avustralya",
    "en": "Australia",
    "de": "Australien",
    "ru": "Австралия",
    "aa": "أستراليا",
    "sort": "999",
    "last_update": "2017-11-01 17:00:10",
    "total": "3"
  },
  "157": {
    "id": "157",
    "sport": "2",
    "tr": "Rusya",
    "en": "Russia",
    "de": "Russland",
    "ru": "",
    "aa": "",
    "sort": "4",
    "last_update": "2017-10-30 19:00:34",
    "total": "0"
  },
  "244": {
    "id": "244",
    "sport": "2",
    "tr": "Danimarka",
    "en": "Denmark",
    "de": "Dänemark",
    "ru": "Дания",
    "aa": "الدانمارك",
    "sort": "19",
    "last_update": "2017-11-01 15:30:11",
    "total": "2"
  },
  "114": {
    "id": "114",
    "sport": "2",
    "tr": "İsveç",
    "en": "Sweden",
    "de": "Schweden",
    "ru": "Швеция",
    "aa": "السويد",
    "sort": "20",
    "last_update": "2017-10-30 21:30:17",
    "total": "0"
  },
  "383": {
    "id": "383",
    "sport": "2",
    "tr": "Slovakya",
    "en": "Slovakia",
    "de": "Slowakei",
    "ru": "Словакия",
    "aa": "سلوفاكيا",
    "sort": "22",
    "last_update": "2017-11-01 21:00:26",
    "total": "0"
  },
  "287": {
    "id": "287",
    "sport": "2",
    "tr": "Portekiz",
    "en": "Portugal",
    "de": "Portugal",
    "ru": "Португалия",
    "aa": "البرتغال",
    "sort": "21",
    "last_update": "2017-10-30 22:00:21",
    "total": "0"
  },
  "75": {
    "id": "75",
    "sport": "15",
    "tr": "İsveç",
    "en": "Sweden",
    "de": "Schweden",
    "ru": "Швеция",
    "aa": "السويد",
    "sort": "0",
    "last_update": "2017-11-01 21:00:26",
    "total": "0"
  },
  "373": {
    "id": "373",
    "sport": "23",
    "tr": "Brezilya",
    "en": "Brazil",
    "de": "Brasilien",
    "ru": "Бразилия",
    "aa": "البرازيل",
    "sort": "0",
    "last_update": "2017-11-02 00:00:22",
    "total": "0"
  },
  "180": {
    "id": "180",
    "sport": "23",
    "tr": "Fransa",
    "en": "France",
    "de": "Frankreich",
    "ru": "Франция",
    "aa": "فرنسا",
    "sort": "0",
    "last_update": "2017-11-01 21:00:26",
    "total": "1"
  },
  "395": {
    "id": "395",
    "sport": "2",
    "tr": "Meksika",
    "en": "Mexico",
    "de": "Mexiko",
    "ru": "Мексика",
    "aa": "المكسيك",
    "sort": "999",
    "last_update": "2017-11-01 06:00:06",
    "total": "0"
  },
  "195": {
    "id": "195",
    "sport": "23",
    "tr": "Türkiye",
    "en": "Turkey",
    "de": "Türkei",
    "ru": "Турция",
    "aa": "تركيا",
    "sort": "0",
    "last_update": "2017-11-01 19:00:14",
    "total": "0"
  },
  "372": {
    "id": "372",
    "sport": "2",
    "tr": "Bulgaristan",
    "en": "Bulgaria",
    "de": "Bulgarien",
    "ru": "Болгария",
    "aa": "بلغاريا",
    "sort": "999",
    "last_update": "2017-10-30 19:30:32",
    "total": "0"
  },
  "375": {
    "id": "375",
    "sport": "2",
    "tr": "Güney Kore",
    "en": "Republic of Korea",
    "de": "Südkorea",
    "ru": "Республика Корея",
    "aa": "كوريا الجنوبية",
    "sort": "999",
    "last_update": "2017-11-01 19:00:14",
    "total": "3"
  },
  "834": {
    "id": "834",
    "sport": "21",
    "tr": "Bangladeş",
    "en": "Bangladesh",
    "de": "Bangladesch",
    "ru": "Бангладеш",
    "aa": "بنغلاديش",
    "sort": "0",
    "last_update": "2017-11-01 12:02:13",
    "total": "4"
  },
  "771": {
    "id": "771",
    "sport": "23",
    "tr": "Çin",
    "en": "China",
    "de": "China",
    "ru": "Китай",
    "aa": "الصين",
    "sort": "0",
    "last_update": "2017-10-31 14:30:14",
    "total": "0"
  },
  "291": {
    "id": "291",
    "sport": "1",
    "tr": "Güney Kore",
    "en": "Republic of Korea",
    "de": "Südkorea",
    "ru": "Республика Корея",
    "aa": "كوريا الجنوبية",
    "sort": "99999",
    "last_update": "2017-11-01 13:00:07",
    "total": "6"
  },
  "368": {
    "id": "368",
    "sport": "1",
    "tr": "Endonezya",
    "en": "Indonesia",
    "de": "Indonesien",
    "ru": "Индонезия",
    "aa": "إندونسيا",
    "sort": "999",
    "last_update": "2017-11-01 18:00:15",
    "total": "5"
  },
  "213": {
    "id": "213",
    "sport": "5",
    "tr": "ITF Bayanlar",
    "en": "ITF Women",
    "de": "ITF Frauen",
    "ru": "ITF Женщины",
    "aa": "إتحاد التنس الدولي النساء",
    "sort": "999",
    "last_update": "2017-11-02 01:30:15",
    "total": "101"
  },
  "160": {
    "id": "160",
    "sport": "1",
    "tr": "Litvanya",
    "en": "Lithuania",
    "de": "Litauen",
    "ru": "Литва",
    "aa": "ليتوانيا",
    "sort": "999",
    "last_update": "2017-11-01 22:00:33",
    "total": "4"
  },
  "45": {
    "id": "45",
    "sport": "1",
    "tr": "Singapur",
    "en": "Singapore",
    "de": "Singapur",
    "ru": "Сингапур",
    "aa": "سنغافورة",
    "sort": "999",
    "last_update": "2017-10-31 14:30:14",
    "total": "3"
  },
  "20": {
    "id": "20",
    "sport": "1",
    "tr": "Peru",
    "en": "Peru",
    "de": "Peru",
    "ru": "Перу",
    "aa": "البيرو",
    "sort": "999",
    "last_update": "2017-10-30 23:30:17",
    "total": "0"
  },
  "847": {
    "id": "847",
    "sport": "1",
    "tr": "Filipinler",
    "en": "Philippines",
    "de": "Philippinen",
    "ru": "Филиппины",
    "aa": "الفلبين",
    "sort": "9999",
    "last_update": "2017-11-01 08:30:05",
    "total": "1"
  },
  "165": {
    "id": "165",
    "sport": "1",
    "tr": "Ekvador",
    "en": "Ecuador",
    "de": "Ecuador",
    "ru": "Эквадор",
    "aa": "الإكوادور",
    "sort": "999",
    "last_update": "2017-11-01 06:00:06",
    "total": "6"
  },
  "24": {
    "id": "24",
    "sport": "1",
    "tr": "Slovenya",
    "en": "Slovenia",
    "de": "Slowenien",
    "ru": "Словения",
    "aa": "سلوفينيا",
    "sort": "9999",
    "last_update": "2017-10-30 18:52:03",
    "total": "5"
  },
  "502": {
    "id": "502",
    "sport": "1",
    "tr": "Jamaika",
    "en": "Jamaica",
    "de": "Jamaika",
    "ru": "Ямайка",
    "aa": "جاميكا",
    "sort": null,
    "last_update": "2017-11-01 23:00:22",
    "total": "4"
  },
  "322": {
    "id": "322",
    "sport": "1",
    "tr": "Güney Afrika",
    "en": "South Africa",
    "de": "Südafrika",
    "ru": "Южная Африка",
    "aa": "جنوب أفريقيا",
    "sort": null,
    "last_update": "2017-11-01 20:30:27",
    "total": "0"
  },
  "152": {
    "id": "152",
    "sport": "1",
    "tr": "Sırbistan",
    "en": "Serbia",
    "de": "Serbien",
    "ru": "Сербия",
    "aa": "جمهورية صربيا",
    "sort": "999",
    "last_update": "2017-11-01 18:30:14",
    "total": "8"
  },
  "97": {
    "id": "97",
    "sport": "1",
    "tr": "Avusturya Amatör",
    "en": "Austria Amateur",
    "de": "Österreich Amateure",
    "ru": "Австрия (любители)",
    "aa": "Austria Amateur",
    "sort": "999",
    "last_update": "2017-11-01 18:30:14",
    "total": "24"
  },
  "281": {
    "id": "281",
    "sport": "1",
    "tr": "Venezuela",
    "en": "Venezuela",
    "de": "Venezuela",
    "ru": "Венесуэла",
    "aa": "فنزويلا",
    "sort": "999",
    "last_update": "2017-10-31 03:32:16",
    "total": "2"
  },
  "805": {
    "id": "805",
    "sport": "1",
    "tr": "Kenya",
    "en": "Kenya",
    "de": "Kenia",
    "ru": "Кения",
    "aa": "كينيا",
    "sort": "999",
    "last_update": "2017-11-01 16:30:10",
    "total": "0"
  },
  "135": {
    "id": "135",
    "sport": "23",
    "tr": "Finlandiya",
    "en": "Finland",
    "de": "Finnland",
    "ru": "Финляндия",
    "aa": "فنلندا",
    "sort": null,
    "last_update": "2017-11-01 19:30:15",
    "total": "1"
  },
  "415": {
    "id": "415",
    "sport": "1",
    "tr": "Oman Sultanlığı",
    "en": "Oman",
    "de": "Oman",
    "ru": "Оман",
    "aa": "عُمان",
    "sort": null,
    "last_update": "2017-10-30 19:00:34",
    "total": "7"
  },
  "270": {
    "id": "270",
    "sport": "1",
    "tr": "Gürcistan",
    "en": "Georgia",
    "de": "Georgien",
    "ru": "Грузия",
    "aa": "جورجيا",
    "sort": "999",
    "last_update": "2017-11-01 18:00:15",
    "total": "0"
  },
  "367": {
    "id": "367",
    "sport": "1",
    "tr": "El Salvador",
    "en": "El Salvador",
    "de": "El Salvador",
    "ru": "Сальвадор",
    "aa": "السلفادور",
    "sort": null,
    "last_update": "2017-11-01 13:00:07",
    "total": "1"
  },
  "437": {
    "id": "437",
    "sport": "1",
    "tr": "Honduras",
    "en": "Honduras",
    "de": "Honduras",
    "ru": "Гондурас",
    "aa": "هندوراس",
    "sort": null,
    "last_update": "2017-11-01 14:02:16",
    "total": "2"
  },
  "824": {
    "id": "824",
    "sport": "1",
    "tr": "Uganda",
    "en": "Uganda",
    "de": "Uganda",
    "ru": "Уганда",
    "aa": "أوغندا",
    "sort": null,
    "last_update": "2017-10-31 16:30:18",
    "total": "0"
  },
  "304": {
    "id": "304",
    "sport": "1",
    "tr": "Cezayir",
    "en": "Algeria",
    "de": "Algerien",
    "ru": "Алжир",
    "aa": "الجزائر",
    "sort": null,
    "last_update": "2017-11-01 19:00:14",
    "total": "0"
  },
  "131": {
    "id": "131",
    "sport": "1",
    "tr": "Galler",
    "en": "Wales",
    "de": "Wales",
    "ru": "Уэльс",
    "aa": "ويلز",
    "sort": null,
    "last_update": "2017-10-31 19:30:14",
    "total": "6"
  },
  "296": {
    "id": "296",
    "sport": "1",
    "tr": "Ermenistan",
    "en": "Armenia",
    "de": "Armenien",
    "ru": "",
    "aa": "",
    "sort": "9999",
    "last_update": "2017-10-30 14:00:29",
    "total": "0"
  },
  "256": {
    "id": "256",
    "sport": "23",
    "tr": "Belçika",
    "en": "Belgium",
    "de": "Belgien",
    "ru": "Бельгия",
    "aa": "بلجيكا",
    "sort": null,
    "last_update": "2017-11-01 18:00:15",
    "total": "1"
  },
  "386": {
    "id": "386",
    "sport": "1",
    "tr": "Karadağ",
    "en": "Montenegro",
    "de": "Montenegro",
    "ru": "Черногория",
    "aa": "الجبل الأسود",
    "sort": "999",
    "last_update": "2017-11-01 18:00:15",
    "total": "0"
  },
  "310": {
    "id": "310",
    "sport": "1",
    "tr": "Suudi Arabistan",
    "en": "Saudi Arabia",
    "de": "Saudi Arabien",
    "ru": "Саудовская аравия",
    "aa": "السعودية",
    "sort": null,
    "last_update": "2017-11-01 20:00:16",
    "total": "1"
  },
  "421": {
    "id": "421",
    "sport": "1",
    "tr": "İspanya Amatör",
    "en": "Spain Amateur",
    "de": "Spanien Amateure",
    "ru": "Испания (любители)",
    "aa": "المحترفين الإسباني",
    "sort": null,
    "last_update": "2017-11-01 21:00:26",
    "total": "0"
  },
  "331": {
    "id": "331",
    "sport": "1",
    "tr": "Kuveyt",
    "en": "Kuwait",
    "de": "Kuwait",
    "ru": "Кувейт",
    "aa": "الكويت",
    "sort": null,
    "last_update": "2017-11-01 07:00:06",
    "total": "2"
  },
  "196": {
    "id": "196",
    "sport": "23",
    "tr": "Çek Cumhuriyeti",
    "en": "Czech Republic",
    "de": "Tschechische Republik",
    "ru": "Чехия",
    "aa": "تشيك",
    "sort": null,
    "last_update": "2017-10-30 20:00:37",
    "total": "0"
  },
  "351": {
    "id": "351",
    "sport": "1",
    "tr": "Bahreyn",
    "en": "Bahrain",
    "de": "Bahrain",
    "ru": "Бахрейн",
    "aa": "البحرين",
    "sort": null,
    "last_update": "2017-11-01 20:00:16",
    "total": "2"
  },
  "257": {
    "id": "257",
    "sport": "1",
    "tr": "Arnavutluk",
    "en": "Albania",
    "de": "Albanien",
    "ru": "",
    "aa": "",
    "sort": null,
    "last_update": "2017-10-30 16:00:38",
    "total": "0"
  },
  "329": {
    "id": "329",
    "sport": "1",
    "tr": "Ürdün",
    "en": "Jordan",
    "de": "Jordanien",
    "ru": "Иордания",
    "aa": "الأردن",
    "sort": null,
    "last_update": "2017-10-31 17:30:23",
    "total": "6"
  },
  "306": {
    "id": "306",
    "sport": "4",
    "tr": "Letonya",
    "en": "Latvia",
    "de": "Lettland",
    "ru": "Латвия",
    "aa": "لاتفيا",
    "sort": null,
    "last_update": "2017-11-01 20:30:27",
    "total": "0"
  },
  "938": {
    "id": "938",
    "sport": "1",
    "tr": "Cebelitarık",
    "en": "Gibraltar",
    "de": "Gibraltar",
    "ru": "Гибралтар",
    "aa": "جبل طارق",
    "sort": null,
    "last_update": "2017-11-01 11:30:05",
    "total": "1"
  },
  "447": {
    "id": "447",
    "sport": "23",
    "tr": "Güney Kore",
    "en": "Republic of Korea",
    "de": "Südkorea",
    "ru": "Республика Корея",
    "aa": "كوريا الجنوبية",
    "sort": null,
    "last_update": "2017-11-01 13:00:07",
    "total": "1"
  },
  "549": {
    "id": "549",
    "sport": "2",
    "tr": "Uruguay",
    "en": "Uruguay",
    "de": "Uruguay",
    "ru": "Уругвай",
    "aa": "الأوروغواي",
    "sort": null,
    "last_update": "2017-11-01 03:30:06",
    "total": "0"
  },
  "265": {
    "id": "265",
    "sport": "23",
    "tr": "Portekiz",
    "en": "Portugal",
    "de": "Portugal",
    "ru": "Португалия",
    "aa": "البرتغال",
    "sort": null,
    "last_update": "2017-11-01 21:00:26",
    "total": "0"
  },
  "457": {
    "id": "457",
    "sport": "23",
    "tr": "Slovakya",
    "en": "Slovakia",
    "de": "Slowakei",
    "ru": "Словакия",
    "aa": "سلوفاكيا",
    "sort": null,
    "last_update": "2017-11-01 19:00:14",
    "total": "0"
  },
  "179": {
    "id": "179",
    "sport": "23",
    "tr": "Yunanistan",
    "en": "Greece",
    "de": "Griechenland",
    "ru": "Греция",
    "aa": "اليونان",
    "sort": null,
    "last_update": "2017-10-30 19:00:34",
    "total": "0"
  },
  "546": {
    "id": "546",
    "sport": "2",
    "tr": "İzlanda",
    "en": "Iceland",
    "de": "Island",
    "ru": "Исландия",
    "aa": "أيسلندا",
    "sort": null,
    "last_update": "2017-11-01 22:30:21",
    "total": "0"
  },
  "146": {
    "id": "146",
    "sport": "23",
    "tr": "Hollanda",
    "en": "Netherlands",
    "de": "Niederlande",
    "ru": "Голландия (Нидерланды)",
    "aa": "هولندا",
    "sort": null,
    "last_update": "2017-11-01 22:00:33",
    "total": "0"
  },
  "148": {
    "id": "148",
    "sport": "1",
    "tr": "Yeni Zelanda",
    "en": "New Zealand",
    "de": "Neuseeland",
    "ru": "Новая Зеландия",
    "aa": "نيوزيلندا",
    "sort": null,
    "last_update": "2017-11-01 17:30:11",
    "total": "5"
  },
  "398": {
    "id": "398",
    "sport": "23",
    "tr": "Romanya",
    "en": "Romania",
    "de": "Rumänien",
    "ru": "Румыния",
    "aa": "رومانيا",
    "sort": null,
    "last_update": "2017-11-01 19:00:14",
    "total": "0"
  },
  "828": {
    "id": "828",
    "sport": "2",
    "tr": "Şili",
    "en": "Chile",
    "de": "Chile",
    "ru": "Чили",
    "aa": "تشيلي",
    "sort": null,
    "last_update": "2017-11-02 01:00:15",
    "total": "0"
  },
  "128": {
    "id": "128",
    "sport": "23",
    "tr": "Avusturya",
    "en": "Austria",
    "de": "Österreich",
    "ru": "Австрия",
    "aa": "النمسا",
    "sort": null,
    "last_update": "2017-11-01 20:30:27",
    "total": "0"
  },
  "194": {
    "id": "194",
    "sport": "2",
    "tr": "Estonya",
    "en": "Estonia",
    "de": "Estland",
    "ru": "Эстония",
    "aa": "إستونيا",
    "sort": null,
    "last_update": "2017-10-31 20:00:18",
    "total": "0"
  },
  "123": {
    "id": "123",
    "sport": "23",
    "tr": "Almanya",
    "en": "Germany",
    "de": "Deutschland",
    "ru": "Германия",
    "aa": "ألمانيا",
    "sort": null,
    "last_update": "2017-11-01 21:30:35",
    "total": "0"
  },
  "177": {
    "id": "177",
    "sport": "23",
    "tr": "İsveç",
    "en": "Sweden",
    "de": "Schweden",
    "ru": "Швеция",
    "aa": "السويد",
    "sort": null,
    "last_update": "2017-11-01 21:00:26",
    "total": "0"
  },
  "548": {
    "id": "548",
    "sport": "2",
    "tr": "Çin",
    "en": "China",
    "de": "China",
    "ru": "Китай",
    "aa": "الصين",
    "sort": null,
    "last_update": "2017-11-01 19:00:14",
    "total": "3"
  }
}
